%YAML 1.1
%TAG !u! tag:unity3d.com,2011:
--- !u!114 &11400000
MonoBehaviour:
  m_ObjectHideFlags: 0
  m_PrefabParentObject: {fileID: 0}
  m_PrefabInternal: {fileID: 0}
  m_GameObject: {fileID: 0}
  m_Enabled: 1
  m_EditorHideFlags: 0
  m_Script: {fileID: 11500000, guid: d25d89570607dab4a84c8d27a758c599, type: 3}
  m_Name: Level3Wheel
  m_EditorClassIdentifier: 
  Name: Level3 Wheel
  Prefab: {fileID: 1252846216141348, guid: d2f554d88d5a0454a9c078432ce3c38a, type: 2}
  Cost: 500
