%YAML 1.1
%TAG !u! tag:unity3d.com,2011:
--- !u!114 &11400000
MonoBehaviour:
  m_ObjectHideFlags: 0
  m_PrefabParentObject: {fileID: 0}
  m_PrefabInternal: {fileID: 0}
  m_GameObject: {fileID: 0}
  m_Enabled: 1
  m_EditorHideFlags: 0
  m_Script: {fileID: 11500000, guid: a1ae670680dd9904a9dce1c979263909, type: 3}
  m_Name: Forest
  m_EditorClassIdentifier: 
  _assets:
  - {fileID: 11400000, guid: eb08b32d36f793d49b4b30fc3465c9f3, type: 2}
  - {fileID: 11400000, guid: 24e26bb4ea58220479c475877d98cad0, type: 2}
  - {fileID: 11400000, guid: 7ea8ebbc9c92c6b4882b94e0f23f8b01, type: 2}
  _maxLength: 120
  _minLength: 60
  BiomesToTransition:
  - {fileID: 11400000, guid: 010c0784ab074184ebf3d118c5600025, type: 2}
