%YAML 1.1
%TAG !u! tag:unity3d.com,2011:
--- !u!114 &11400000
MonoBehaviour:
  m_ObjectHideFlags: 0
  m_PrefabParentObject: {fileID: 0}
  m_PrefabInternal: {fileID: 0}
  m_GameObject: {fileID: 0}
  m_Enabled: 1
  m_EditorHideFlags: 0
  m_Script: {fileID: 11500000, guid: a1ae670680dd9904a9dce1c979263909, type: 3}
  m_Name: City
  m_EditorClassIdentifier: 
  _assets:
  - {fileID: 11400000, guid: b5047a9b79074434f9dd5dee801169fa, type: 2}
  - {fileID: 11400000, guid: 778c55e8d8cd9c64c8d59a3bc436c3ef, type: 2}
  - {fileID: 11400000, guid: 7367c3c485b0daa4f9af39aef02441ea, type: 2}
  - {fileID: 11400000, guid: 7ea8ebbc9c92c6b4882b94e0f23f8b01, type: 2}
  _maxLength: 90
  _minLength: 40
  BiomesToTransition:
  - {fileID: 11400000, guid: 5b0024103a0eb0442bcf6c8203e664f1, type: 2}
