%YAML 1.1
%TAG !u! tag:unity3d.com,2011:
--- !u!114 &11400000
MonoBehaviour:
  m_ObjectHideFlags: 0
  m_PrefabParentObject: {fileID: 0}
  m_PrefabInternal: {fileID: 0}
  m_GameObject: {fileID: 0}
  m_Enabled: 1
  m_EditorHideFlags: 0
  m_Script: {fileID: 11500000, guid: 30f11ffdd7bf81f41a4984b5eb5c8f7e, type: 3}
  m_Name: Level1Chassis
  m_EditorClassIdentifier: 
  Name: Level1 Chassis
  Prefab: {fileID: 1965880557335106, guid: 170be4eb692589540ab128e1bdedb737, type: 2}
  Cost: 250
  WheelCount: 4
